{
	"name": "Webtra.Docs",

	"version": "2.0",

	"versionName": "Archon",

	"versionDate": "12.08.2024",

	"shortDescription": "#WEBTRA.DOCS.OVERVIEWDESCRIPTION",

	"longDescription": true,

	"changeLog": true,

	"license": "ONFSLv1",

	"developer":
	{
		"name": "Webtranet Affinity Group",
		"url": "https://webtranet.online"
	},

	"mediaUrls": [],

	"categories": [],

	"requirements":
	{

	},

	"icons":
	{
		"256": "public/logo_256.png"
	},

	"visible": true,

	"permissions": [],

	"manifestVersion": 1,

	"startType": "windowed",

	"startHeight": 0,

	"startWidth": 0,

	"resizable": true,

	"fullscreenable": true,

	"appcachePath": "",

	"dependencies":
	{
		"css":
		[
			"/wappstower/libs/fatcow-icons/20130425/FatCow_Icons32x32/css/fatcowicons.css",
			"/wappstower/libs/tripletower/2.0/webcomponents/assets/tt-fonts.css",
			"/wappstower/libs/tripletower/2.0/webcomponents/assets/tt-variables.css",
			"public/css/webtra-docs-styles.css"
		],

		"js":
		[
			"/wappstower/cdnjs/jquery/3.4.1/jquery.js",
			"/wappstower/libs/tripletower/1.0/js/tripletower.js",
			"/wappstower/libs/tripletower/2.0/webcomponents/atoms/TTBreadcrumb/TTBreadcrumb.esm.js",
			"/wappstower/libs/tripletower/2.0/webcomponents/atoms/TTButton/TTButton.esm.js",
			"/wappstower/libs/tripletower/2.0/webcomponents/atoms/TTCard/TTCard.esm.js",
			"/wappstower/libs/tripletower/2.0/webcomponents/atoms/TTCheckInput/TTCheckInput.esm.js",
			"/wappstower/libs/tripletower/2.0/webcomponents/atoms/TTEmailInput/TTEmailInput.esm.js",
			"/wappstower/libs/tripletower/2.0/webcomponents/atoms/TTLabel/TTLabel.esm.js",
			"/wappstower/libs/tripletower/2.0/webcomponents/atoms/TTParagraph/TTParagraph.esm.js",
			"/wappstower/libs/tripletower/2.0/webcomponents/atoms/TTPasswordDoubleInput/TTPasswordDoubleInput.esm.js",
			"/wappstower/libs/tripletower/2.0/webcomponents/atoms/TTPasswordInput/TTPasswordInput.esm.js",
			"/wappstower/libs/tripletower/2.0/webcomponents/atoms/TTPhoneInput/TTPhoneInput.esm.js",
			"/wappstower/libs/tripletower/2.0/webcomponents/atoms/TTRadio/TTRadio.esm.js",
			"/wappstower/libs/tripletower/2.0/webcomponents/atoms/TTRadioGroup/TTRadioGroup.esm.js",
			"/wappstower/libs/tripletower/2.0/webcomponents/atoms/TTSearchInput/TTSearchInput.esm.js",
			"/wappstower/libs/tripletower/2.0/webcomponents/atoms/TTSelectInput/TTSelectInput.esm.js",
			"/wappstower/libs/tripletower/2.0/webcomponents/atoms/TTSeparator/TTSeparator.esm.js",
			"/wappstower/libs/tripletower/2.0/webcomponents/atoms/TTTag/TTTag.esm.js",
			"/wappstower/libs/tripletower/2.0/webcomponents/atoms/TTTextInput/TTTextInput.esm.js",
			"/wappstower/libs/tripletower/2.0/webcomponents/atoms/TTToast/TTToast.esm.js",
			"/wappstower/libs/tripletower/2.0/webcomponents/atoms/TTToggleSwitch/TTToggleSwitch.esm.js",
			"/wappstower/libs/tripletower/2.0/webcomponents/atoms/TTTooltip/TTTooltip.esm.js",
			"/wappstower/libs/tripletower/2.0/webcomponents/atoms/TTUrlInput/TTUrlInput.esm.js"
		]
	},

	"views":
	{
		"default_view": "overview",

		"overview":
		{
			"title": "#WEBTRA.DOCS.OVERVIEWTITLE",
			"navigationIconClass": "fatcowicon-3d_glasses",

			"content": "overview",
			"accessType": "public",
			"loadingScreen": false,

			"description": "#WEBTRA.DOCS.OVERVIEWDESCRIPTION"
		},

		"hanoi":
		{
			"title": "#WEBTRA.DOCS.HANOITITLE",
			"navigationIconClass": "fatcowicon-box_open",

			"content": "hanoi",
			"accessType": "public",
			"loadingScreen": false,

			"description": "#WEBTRA.DOCS.HANOIDESCRIPTION"
		},

		"codecrafting":
		{
			"title": "#WEBTRA.DOCS.CODECRAFTINGTITLE",
			"navigationIconClass": "fatcowicon-source_code",

			"views":
			{
				"licensing":
				{
					"title": "#WEBTRA.DOCS.LICENSINGTITLE",
					"navigationIconClass": "fatcowicon-paragraph_spacing",

					"content": "licensing",
					"accessType": "public",
					"loadingScreen": false,

					"description": "#WEBTRA.DOCS.LICENSINGDESCRIPTION"
				},
				"ides":
				{
					"title": "#WEBTRA.DOCS.IDESTITLE",
					"navigationIconClass": "fatcowicon-application_form_edit",

					"content": "ides",
					"accessType": "public",
					"loadingScreen": false,

					"description": "#WEBTRA.DOCS.IDESDESCRIPTION"
				},
				"codingconventions":
				{
					"title": "#WEBTRA.DOCS.CODINGCONVENTIONSTITLE",
					"navigationIconClass": "fatcowicon-script_code",

					"content": "codingconventions",
					"accessType": "public",
					"loadingScreen": false,

					"description": "#WEBTRA.DOCS.CODINGCONVENTIONSDESCRIPTION"
				}
			}
		},

		"architecture":
		{
			"title": "#WEBTRA.DOCS.ARCHITECTURETITLE",
			"navigationIconClass": "fatcowicon-sitemap_color",

			"views":
			{
				"towers":
				{
					"title": "#WEBTRA.DOCS.TOWERSTITLE",
					"navigationIconClass": "fatcowicon-tower",

					"content": "towers",
					"accessType": "public",
					"loadingScreen": false,

					"description": "#WEBTRA.DOCS.TOWERSDESCRIPTION"
				},

				"requestrouting":
				{
					"title": "#WEBTRA.DOCS.REQUESTROUTINGTITLE",
					"navigationIconClass": "fatcowicon-routing_intersection_right",

					"content": "requestrouting",
					"accessType": "public",
					"loadingScreen": false,

					"description": "#WEBTRA.DOCS.REQUESTROUTINGDESCRIPTION"
				}
			}
		},

		"filesandfolders":
		{
			"title": "#WEBTRA.DOCS.FILESANDFOLDERSTITLE",
			"navigationIconClass": "fatcowicon-folder_page",

			"views":
			{
				"folderstructure":
				{
					"title": "#WEBTRA.DOCS.FOLDERSTRUCTURETITLE",
					"navigationIconClass": "fatcowicon-folders_explorer",

					"content": "folderstructure",
					"accessType": "public",
					"loadingScreen": false,

					"description": "#WEBTRA.DOCS.FOLDERSTRUCTUREDESCRIPTION"
				},

				"views":
				{
					"title": "#WEBTRA.DOCS.VIEWSTITLE",
					"navigationIconClass": "fatcowicon-home_page",

					"content": "views",
					"accessType": "public",
					"loadingScreen": false,

					"description": "#WEBTRA.DOCS.VIEWSDESCRIPTION"
				},

				"apis":
				{
					"title": "#WEBTRA.DOCS.APISTITLE",
					"navigationIconClass": "fatcowicon-script_code",

					"content": "apis",
					"accessType": "public",
					"loadingScreen": false,

					"description": "#WEBTRA.DOCS.APISDESCRIPTION"
				},

				"public":
				{
					"title": "#WEBTRA.DOCS.PUBLICTITLE",
					"navigationIconClass": "fatcowicon-house_go",

					"content": "public",
					"accessType": "public",
					"loadingScreen": false,

					"description": "#WEBTRA.DOCS.PUBLICDESCRIPTION"
				},

				"temp":
				{
					"title": "#WEBTRA.DOCS.TEMPTITLE",
					"navigationIconClass": "fatcowicon-http_status_temporary",

					"content": "temp",
					"accessType": "public",
					"loadingScreen": false,

					"description": "#WEBTRA.DOCS.TEMPDESCRIPTION"
				},

				"metajson":
				{
					"title": "#WEBTRA.DOCS.METAJSONTITLE",
					"navigationIconClass": "fatcowicon-document_info",

					"content": "metajson",
					"accessType": "public",
					"loadingScreen": false,

					"description": "#WEBTRA.DOCS.METAJSONDESCRIPTION"
				}
			}
		},

		"programmingconcepts":
		{
			"title": "#WEBTRA.DOCS.PROGRAMMINGCONCEPTSTITLE",
			"navigationIconClass": "fatcowicon-office_apps",

			"views":
			{
				"configuration":
				{
					"title": "#WEBTRA.DOCS.CONFIGURATIONTITLE",
					"navigationIconClass": "fatcowicon-interface_preferences",

					"content": "configuration",
					"accessType": "public",
					"loadingScreen": false,

					"description": "#WEBTRA.DOCS.CONFIGURATIONDESCRIPTION"
				},

				"logging":
				{
					"title": "#WEBTRA.DOCS.LOGGINGTITLE",
					"navigationIconClass": "fatcowicon-file_extension_log",

					"content": "logging",
					"accessType": "public",
					"loadingScreen": false,

					"description": "#WEBTRA.DOCS.LOGGINGDESCRIPTION"
				},

				"databases":
				{
					"title": "#WEBTRA.DOCS.DATABASESTITLE",
					"navigationIconClass": "fatcowicon-database_yellow",

					"content": "databases",
					"accessType": "public",
					"loadingScreen": false,

					"description": "#WEBTRA.DOCS.DATABASESDESCRIPTION"
				},

				"storages":
				{
					"title": "#WEBTRA.DOCS.STORAGESTITLE",
					"navigationIconClass": "fatcowicon-site_backup_and_restore",

					"content": "storages",
					"accessType": "public",
					"loadingScreen": false,

					"description": "#WEBTRA.DOCS.STORAGESDESCRIPTION"
				},

				"g11n":
				{
					"title": "#WEBTRA.DOCS.G11NTITLE",
					"navigationIconClass": "fatcowicon-flag_united_nations",

					"content": "g11n",
					"accessType": "public",
					"loadingScreen": false,

					"description": "#WEBTRA.DOCS.G11NDESCRIPTION"
				}
			}
		},

		"tripletowerlib":
		{
			"title": "#WEBTRA.DOCS.TRIPLETOWERLIBTITLE",
			"navigationIconClass": "fatcowicon-book",

			"content": "tripletowerlib",
			"accessType": "public",
			"loadingScreen": false,

			"description": "#WEBTRA.DOCS.TRIPLETOWERLIBDESCRIPTION"
		},

		"webcomponents":
		{
			"title": "#WEBTRA.DOCS.WEBCOMPONENTSTITLE",
			"navigationIconClass": "fatcowicon-html_5",

			"views":
			{
				"webcomponentsinfo":
				{
					"title": "#WEBTRA.DOCS.WEBCOMPONENTSINFOTITLE",
					"navigationIconClass": "fatcowicon-infocard",

					"content": "webcomponentsinfo",
					"accessType": "public",
					"loadingScreen": false,

					"description": "#WEBTRA.DOCS.WEBCOMPONENTSINFODESCRIPTION"
				},

				"atoms":
				{
					"title": "#WEBTRA.DOCS.ATOMSTITLE",
					"navigationIconClass": "fatcowicon-json",

					"content": "atoms",
					"accessType": "public",
					"loadingScreen": false,

					"description": "#WEBTRA.DOCS.ATOMSDESCRIPTION"
				},

				"molecules":
				{
					"title": "#WEBTRA.DOCS.MOLECULESTITLE",
					"navigationIconClass": "fatcowicon-molecule",

					"content": "molecules",
					"accessType": "public",
					"loadingScreen": false,

					"description": "#WEBTRA.DOCS.MOLECULESDESCRIPTION"
				},

				"organisms":
				{
					"title": "#WEBTRA.DOCS.ORGANISMSTITLE",
					"navigationIconClass": "fatcowicon-ladybird",

					"content": "organisms",
					"accessType": "public",
					"loadingScreen": false,

					"description": "#WEBTRA.DOCS.ORGANISMSDESCRIPTION"
				}
			}
		},

		"isolationgate":
		{
			"title": "#WEBTRA.DOCS.ISOLATIONGATETITLE",
			"navigationIconClass": "fatcowicon-application_side_expand",

			"content": "isolationgate",
			"accessType": "public",
			"loadingScreen": false,

			"description": "#WEBTRA.DOCS.ISOLATIONGATEDESCRIPTION"
		},

		"testing":
		{
			"title": "#WEBTRA.DOCS.TESTINGTITLE",
			"navigationIconClass": "fatcowicon-lcd_tv_test",

			"content": "testing",
			"accessType": "public",
			"loadingScreen": false,

			"description": "#WEBTRA.DOCS.TESTINGDESCRIPTION"
		},

		"optimization":
		{
			"title": "#WEBTRA.DOCS.OPTIMIZATIONTITLE",
			"navigationIconClass": "fatcowicon-user_racer",

			"content": "optimization",
			"accessType": "public",
			"loadingScreen": false,

			"description": "#WEBTRA.DOCS.OPTIMIZATIONDESCRIPTION"
		},

		"kal":
		{
			"title": "#WEBTRA.DOCS.KALTITLE",
			"navigationIconClass": "fatcowicon-plugin",

			"content": "kal",
			"accessType": "public",
			"loadingScreen": false,

			"description": "#WEBTRA.DOCS.KALDESCRIPTION"
		}
	},

	"api":
	{

	}
}